%YAML 1.1
%TAG !u! tag:unity3d.com,2011:
--- !u!74 &7400000
AnimationClip:
  m_ObjectHideFlags: 0
  m_CorrespondingSourceObject: {fileID: 0}
  m_PrefabInstance: {fileID: 0}
  m_PrefabAsset: {fileID: 0}
  m_Name: Attacco Scheletro
  serializedVersion: 6
  m_Legacy: 0
  m_Compressed: 0
  m_UseHighQualityCurve: 1
  m_RotationCurves: []
  m_CompressedRotationCurves: []
  m_EulerCurves: []
  m_PositionCurves: []
  m_ScaleCurves: []
  m_FloatCurves: []
  m_PPtrCurves:
  - curve:
    - time: 0
      value: {fileID: -3847943250117979209, guid: 701d0f95b5ba5874eb9d693cb9e7346a, type: 3}
    - time: 0.11666667
      value: {fileID: -529646562509220946, guid: 701d0f95b5ba5874eb9d693cb9e7346a, type: 3}
    - time: 0.21666667
      value: {fileID: -7138319701972840668, guid: 701d0f95b5ba5874eb9d693cb9e7346a, type: 3}
    - time: 0.36666667
      value: {fileID: 3291756735606063980, guid: 701d0f95b5ba5874eb9d693cb9e7346a, type: 3}
    - time: 0.46666667
      value: {fileID: -8264367007930756521, guid: 701d0f95b5ba5874eb9d693cb9e7346a, type: 3}
    - time: 0.5833333
      value: {fileID: 6926094506201588144, guid: 701d0f95b5ba5874eb9d693cb9e7346a, type: 3}
    - time: 0.68333334
      value: {fileID: 3844375112415055413, guid: 701d0f95b5ba5874eb9d693cb9e7346a, type: 3}
    - time: 0.8333333
      value: {fileID: -6815739294338704575, guid: 701d0f95b5ba5874eb9d693cb9e7346a, type: 3}
    - time: 0.95
      value: {fileID: 7627512933118868929, guid: 701d0f95b5ba5874eb9d693cb9e7346a, type: 3}
    - time: 1.05
      value: {fileID: -7601260514028395475, guid: 701d0f95b5ba5874eb9d693cb9e7346a, type: 3}
    - time: 1.1666666
      value: {fileID: -823298783069048056, guid: 701d0f95b5ba5874eb9d693cb9e7346a, type: 3}
    - time: 1.3166667
      value: {fileID: 368417881747873077, guid: 701d0f95b5ba5874eb9d693cb9e7346a, type: 3}
    - time: 1.4166666
      value: {fileID: 1424786261180037135, guid: 701d0f95b5ba5874eb9d693cb9e7346a, type: 3}
    - time: 1.5333333
      value: {fileID: 7777100389646448644, guid: 701d0f95b5ba5874eb9d693cb9e7346a, type: 3}
    - time: 1.6333333
      value: {fileID: 951018012323566522, guid: 701d0f95b5ba5874eb9d693cb9e7346a, type: 3}
    - time: 1.7333333
      value: {fileID: 2023176062729479260, guid: 701d0f95b5ba5874eb9d693cb9e7346a, type: 3}
    - time: 1.8333334
      value: {fileID: -134369724413475220, guid: 701d0f95b5ba5874eb9d693cb9e7346a, type: 3}
    - time: 1.95
      value: {fileID: -4541977737240093436, guid: 701d0f95b5ba5874eb9d693cb9e7346a, type: 3}
    attribute: m_Sprite
    path: 
    classID: 212
    script: {fileID: 0}
  m_SampleRate: 60
  m_WrapMode: 0
  m_Bounds:
    m_Center: {x: 0, y: 0, z: 0}
    m_Extent: {x: 0, y: 0, z: 0}
  m_ClipBindingConstant:
    genericBindings:
    - serializedVersion: 2
      path: 0
      attribute: 0
      script: {fileID: 0}
      typeID: 212
      customType: 23
      isPPtrCurve: 1
    pptrCurveMapping:
    - {fileID: -3847943250117979209, guid: 701d0f95b5ba5874eb9d693cb9e7346a, type: 3}
    - {fileID: -529646562509220946, guid: 701d0f95b5ba5874eb9d693cb9e7346a, type: 3}
    - {fileID: -7138319701972840668, guid: 701d0f95b5ba5874eb9d693cb9e7346a, type: 3}
    - {fileID: 3291756735606063980, guid: 701d0f95b5ba5874eb9d693cb9e7346a, type: 3}
    - {fileID: -8264367007930756521, guid: 701d0f95b5ba5874eb9d693cb9e7346a, type: 3}
    - {fileID: 6926094506201588144, guid: 701d0f95b5ba5874eb9d693cb9e7346a, type: 3}
    - {fileID: 3844375112415055413, guid: 701d0f95b5ba5874eb9d693cb9e7346a, type: 3}
    - {fileID: -6815739294338704575, guid: 701d0f95b5ba5874eb9d693cb9e7346a, type: 3}
    - {fileID: 7627512933118868929, guid: 701d0f95b5ba5874eb9d693cb9e7346a, type: 3}
    - {fileID: -7601260514028395475, guid: 701d0f95b5ba5874eb9d693cb9e7346a, type: 3}
    - {fileID: -823298783069048056, guid: 701d0f95b5ba5874eb9d693cb9e7346a, type: 3}
    - {fileID: 368417881747873077, guid: 701d0f95b5ba5874eb9d693cb9e7346a, type: 3}
    - {fileID: 1424786261180037135, guid: 701d0f95b5ba5874eb9d693cb9e7346a, type: 3}
    - {fileID: 7777100389646448644, guid: 701d0f95b5ba5874eb9d693cb9e7346a, type: 3}
    - {fileID: 951018012323566522, guid: 701d0f95b5ba5874eb9d693cb9e7346a, type: 3}
    - {fileID: 2023176062729479260, guid: 701d0f95b5ba5874eb9d693cb9e7346a, type: 3}
    - {fileID: -134369724413475220, guid: 701d0f95b5ba5874eb9d693cb9e7346a, type: 3}
    - {fileID: -4541977737240093436, guid: 701d0f95b5ba5874eb9d693cb9e7346a, type: 3}
  m_AnimationClipSettings:
    serializedVersion: 2
    m_AdditiveReferencePoseClip: {fileID: 0}
    m_AdditiveReferencePoseTime: 0
    m_StartTime: 0
    m_StopTime: 1.9666667
    m_OrientationOffsetY: 0
    m_Level: 0
    m_CycleOffset: 0
    m_HasAdditiveReferencePose: 0
    m_LoopTime: 0
    m_LoopBlend: 0
    m_LoopBlendOrientation: 0
    m_LoopBlendPositionY: 0
    m_LoopBlendPositionXZ: 0
    m_KeepOriginalOrientation: 0
    m_KeepOriginalPositionY: 1
    m_KeepOriginalPositionXZ: 0
    m_HeightFromFeet: 0
    m_Mirror: 0
  m_EditorCurves: []
  m_EulerEditorCurves: []
  m_HasGenericRootTransform: 0
  m_HasMotionFloatCurves: 0
  m_Events: []
