%YAML 1.1
%TAG !u! tag:unity3d.com,2011:
--- !u!74 &7400000
AnimationClip:
  m_ObjectHideFlags: 0
  m_CorrespondingSourceObject: {fileID: 0}
  m_PrefabInstance: {fileID: 0}
  m_PrefabAsset: {fileID: 0}
  m_Name: Idle Scheletro
  serializedVersion: 6
  m_Legacy: 0
  m_Compressed: 0
  m_UseHighQualityCurve: 1
  m_RotationCurves: []
  m_CompressedRotationCurves: []
  m_EulerCurves: []
  m_PositionCurves: []
  m_ScaleCurves: []
  m_FloatCurves: []
  m_PPtrCurves:
  - curve:
    - time: 0
      value: {fileID: 7928858964255100155, guid: a0ed5d9c453e0db499c07a867495cbda, type: 3}
    - time: 0.13333334
      value: {fileID: -289379152601194012, guid: a0ed5d9c453e0db499c07a867495cbda, type: 3}
    - time: 0.25
      value: {fileID: -8331204611373963175, guid: a0ed5d9c453e0db499c07a867495cbda, type: 3}
    - time: 0.38333333
      value: {fileID: 5974531914738200450, guid: a0ed5d9c453e0db499c07a867495cbda, type: 3}
    - time: 0.5
      value: {fileID: 1900126310482141809, guid: a0ed5d9c453e0db499c07a867495cbda, type: 3}
    - time: 0.6333333
      value: {fileID: -9007221444457188966, guid: a0ed5d9c453e0db499c07a867495cbda, type: 3}
    - time: 0.75
      value: {fileID: 6361432402118329833, guid: a0ed5d9c453e0db499c07a867495cbda, type: 3}
    - time: 0.8833333
      value: {fileID: 1571032212639168507, guid: a0ed5d9c453e0db499c07a867495cbda, type: 3}
    - time: 1
      value: {fileID: 7611122742130972421, guid: a0ed5d9c453e0db499c07a867495cbda, type: 3}
    - time: 1.1333333
      value: {fileID: 5180031473007828922, guid: a0ed5d9c453e0db499c07a867495cbda, type: 3}
    - time: 1.25
      value: {fileID: -5784503621931760760, guid: a0ed5d9c453e0db499c07a867495cbda, type: 3}
    attribute: m_Sprite
    path: 
    classID: 212
    script: {fileID: 0}
  m_SampleRate: 60
  m_WrapMode: 0
  m_Bounds:
    m_Center: {x: 0, y: 0, z: 0}
    m_Extent: {x: 0, y: 0, z: 0}
  m_ClipBindingConstant:
    genericBindings:
    - serializedVersion: 2
      path: 0
      attribute: 0
      script: {fileID: 0}
      typeID: 212
      customType: 23
      isPPtrCurve: 1
    pptrCurveMapping:
    - {fileID: 7928858964255100155, guid: a0ed5d9c453e0db499c07a867495cbda, type: 3}
    - {fileID: -289379152601194012, guid: a0ed5d9c453e0db499c07a867495cbda, type: 3}
    - {fileID: -8331204611373963175, guid: a0ed5d9c453e0db499c07a867495cbda, type: 3}
    - {fileID: 5974531914738200450, guid: a0ed5d9c453e0db499c07a867495cbda, type: 3}
    - {fileID: 1900126310482141809, guid: a0ed5d9c453e0db499c07a867495cbda, type: 3}
    - {fileID: -9007221444457188966, guid: a0ed5d9c453e0db499c07a867495cbda, type: 3}
    - {fileID: 6361432402118329833, guid: a0ed5d9c453e0db499c07a867495cbda, type: 3}
    - {fileID: 1571032212639168507, guid: a0ed5d9c453e0db499c07a867495cbda, type: 3}
    - {fileID: 7611122742130972421, guid: a0ed5d9c453e0db499c07a867495cbda, type: 3}
    - {fileID: 5180031473007828922, guid: a0ed5d9c453e0db499c07a867495cbda, type: 3}
    - {fileID: -5784503621931760760, guid: a0ed5d9c453e0db499c07a867495cbda, type: 3}
  m_AnimationClipSettings:
    serializedVersion: 2
    m_AdditiveReferencePoseClip: {fileID: 0}
    m_AdditiveReferencePoseTime: 0
    m_StartTime: 0
    m_StopTime: 1.2666667
    m_OrientationOffsetY: 0
    m_Level: 0
    m_CycleOffset: 0
    m_HasAdditiveReferencePose: 0
    m_LoopTime: 1
    m_LoopBlend: 0
    m_LoopBlendOrientation: 0
    m_LoopBlendPositionY: 0
    m_LoopBlendPositionXZ: 0
    m_KeepOriginalOrientation: 0
    m_KeepOriginalPositionY: 1
    m_KeepOriginalPositionXZ: 0
    m_HeightFromFeet: 0
    m_Mirror: 0
  m_EditorCurves: []
  m_EulerEditorCurves: []
  m_HasGenericRootTransform: 0
  m_HasMotionFloatCurves: 0
  m_Events: []
