%YAML 1.1
%TAG !u! tag:unity3d.com,2011:
--- !u!74 &7400000
AnimationClip:
  m_ObjectHideFlags: 0
  m_CorrespondingSourceObject: {fileID: 0}
  m_PrefabInstance: {fileID: 0}
  m_PrefabAsset: {fileID: 0}
  m_Name: Idle zombie
  serializedVersion: 6
  m_Legacy: 0
  m_Compressed: 0
  m_UseHighQualityCurve: 1
  m_RotationCurves: []
  m_CompressedRotationCurves: []
  m_EulerCurves: []
  m_PositionCurves: []
  m_ScaleCurves: []
  m_FloatCurves: []
  m_PPtrCurves:
  - curve:
    - time: 0
      value: {fileID: 6019453725058403666, guid: e82dc7df6e6874f48a4acbd2585a3614, type: 3}
    - time: 0.18333334
      value: {fileID: -2485871483528494817, guid: e82dc7df6e6874f48a4acbd2585a3614, type: 3}
    - time: 0.31666666
      value: {fileID: 6284166523789267160, guid: e82dc7df6e6874f48a4acbd2585a3614, type: 3}
    - time: 0.5
      value: {fileID: -8585762769051335824, guid: e82dc7df6e6874f48a4acbd2585a3614, type: 3}
    - time: 0.6666667
      value: {fileID: -980516788960830398, guid: e82dc7df6e6874f48a4acbd2585a3614, type: 3}
    - time: 0.85
      value: {fileID: 9211052458692073003, guid: e82dc7df6e6874f48a4acbd2585a3614, type: 3}
    - time: 0.98333335
      value: {fileID: -1977811604655986376, guid: e82dc7df6e6874f48a4acbd2585a3614, type: 3}
    - time: 1.1666666
      value: {fileID: 2485403828518691469, guid: e82dc7df6e6874f48a4acbd2585a3614, type: 3}
    attribute: m_Sprite
    path: 
    classID: 212
    script: {fileID: 0}
  m_SampleRate: 60
  m_WrapMode: 0
  m_Bounds:
    m_Center: {x: 0, y: 0, z: 0}
    m_Extent: {x: 0, y: 0, z: 0}
  m_ClipBindingConstant:
    genericBindings:
    - serializedVersion: 2
      path: 0
      attribute: 0
      script: {fileID: 0}
      typeID: 212
      customType: 23
      isPPtrCurve: 1
    pptrCurveMapping:
    - {fileID: 6019453725058403666, guid: e82dc7df6e6874f48a4acbd2585a3614, type: 3}
    - {fileID: -2485871483528494817, guid: e82dc7df6e6874f48a4acbd2585a3614, type: 3}
    - {fileID: 6284166523789267160, guid: e82dc7df6e6874f48a4acbd2585a3614, type: 3}
    - {fileID: -8585762769051335824, guid: e82dc7df6e6874f48a4acbd2585a3614, type: 3}
    - {fileID: -980516788960830398, guid: e82dc7df6e6874f48a4acbd2585a3614, type: 3}
    - {fileID: 9211052458692073003, guid: e82dc7df6e6874f48a4acbd2585a3614, type: 3}
    - {fileID: -1977811604655986376, guid: e82dc7df6e6874f48a4acbd2585a3614, type: 3}
    - {fileID: 2485403828518691469, guid: e82dc7df6e6874f48a4acbd2585a3614, type: 3}
  m_AnimationClipSettings:
    serializedVersion: 2
    m_AdditiveReferencePoseClip: {fileID: 0}
    m_AdditiveReferencePoseTime: 0
    m_StartTime: 0
    m_StopTime: 1.1833333
    m_OrientationOffsetY: 0
    m_Level: 0
    m_CycleOffset: 0
    m_HasAdditiveReferencePose: 0
    m_LoopTime: 1
    m_LoopBlend: 0
    m_LoopBlendOrientation: 0
    m_LoopBlendPositionY: 0
    m_LoopBlendPositionXZ: 0
    m_KeepOriginalOrientation: 0
    m_KeepOriginalPositionY: 1
    m_KeepOriginalPositionXZ: 0
    m_HeightFromFeet: 0
    m_Mirror: 0
  m_EditorCurves: []
  m_EulerEditorCurves: []
  m_HasGenericRootTransform: 0
  m_HasMotionFloatCurves: 0
  m_Events: []
